Lab01_CDP - Análise de Gastos de Deputados: Nossas Perguntas
…
names(valoresDosLimites) <- c("sgUF", "limite_mensal")
novosDados <- merge(dados, valoresDosLimites, by= "sgUF", all = TRUE)

Quais os deputados que mais ultrapassam o limite de CEAP do seu estado?

Assim que fizemos o merge entre as tabelas, pudemos ver que os valores foram colocados na tabela, o que faz com que pudessemos ver a diferença entre o limite do deputado e o que ele gastou, daí poderíamos ver através da coluna de diferença quais os que mais ultrapassaram o limite do CEAP. Podemos ver que em cada estado possui alguns constrates, sendo Henrique Oliveira o que mais ultrapassa o seu limite, seu estado é o AM.

novosDados%>% 
  group_by(nomeParlamentar, sgUF, limite_mensal) %>% 
  summarise(qtDinheiroRS = sum(valorLíquido)) %>% 
  filter(limite_mensal > qtDinheiroRS) %>% 
  summarise(diferenca = limite_mensal - qtDinheiroRS) %>% 
  arrange(-diferenca)

## # A tibble: 250 x 3
## # Groups:   nomeParlamentar [250]
##    nomeParlamentar    sgUF  diferenca
##    <chr>              <chr>     <dbl>
##  1 HENRIQUE OLIVEIRA  AM       43530.
##  2 HUMBERTO MICHILES  AM       43313.
##  3 JOÃO CALDAS        AL       42736.
##  4 ELISEU PADILHA     RS       42363.
##  5 ARTUR BRUNO        CE       42218.
##  6 SIMPLÍCIO ARAÚJO   MA       41951.
##  7 SEBASTIÃO OLIVEIRA PE       41560.
##  8 RENAN FILHO        AL       40909.
##  9 VIEIRA DA CUNHA    RS       40697.
## 10 MARCIO MONTEIRO    MS       40529.
## # ... with 240 more rows
…
